%YAML 1.1
%TAG !u! tag:unity3d.com,2011:
--- !u!74 &7400000
AnimationClip:
  m_ObjectHideFlags: 0
  m_PrefabParentObject: {fileID: 0}
  m_PrefabInternal: {fileID: 0}
  m_Name: down_hurt
  serializedVersion: 4
  m_AnimationType: 2
  m_Compressed: 0
  m_UseHighQualityCurve: 1
  m_RotationCurves:
  - curve:
      serializedVersion: 2
      m_Curve:
      - time: 0
        value: {x: 0, y: 0, z: .00322042196, w: .999994814}
        inSlope: {x: 0, y: 0, z: -.205798373, w: .000311136217}
        outSlope: {x: 0, y: 0, z: -.205798373, w: .000311136217}
        tangentMode: -1128502671
      - time: .0166666675
        value: {x: 0, y: 0, z: -.000209550999, w: 1}
        inSlope: {x: 0, y: 0, z: -.205798298, w: -4.29153442e-05}
        outSlope: {x: 0, y: 0, z: -.205798298, w: -4.29153442e-05}
        tangentMode: 1016779812
      - time: .0333333351
        value: {x: 0, y: 0, z: -.00363952131, w: .999993384}
        inSlope: {x: 0, y: 0, z: -.205796927, w: -.000749230268}
        outSlope: {x: 0, y: 0, z: -.205796927, w: -.000749230268}
        tangentMode: 0
      - time: .0500000045
        value: {x: 0, y: 0, z: -.00706944941, w: .999975026}
        inSlope: {x: 0, y: 0, z: -.205793172, w: -.00145554543}
        outSlope: {x: 0, y: 0, z: -.205793172, w: -.00145554543}
        tangentMode: 0
      - time: .0666666701
        value: {x: 0, y: 0, z: -.0104992939, w: .999944866}
        inSlope: {x: 0, y: 0, z: -.205786929, w: -.0021618607}
        outSlope: {x: 0, y: 0, z: -.205786929, w: -.0021618607}
        tangentMode: 1037905690
      - time: .0833333358
        value: {x: 0, y: 0, z: -.0139290132, w: .999902964}
        inSlope: {x: 0, y: 0, z: -.205778331, w: -.0028663876}
        outSlope: {x: 0, y: 0, z: -.205778331, w: -.0028663876}
        tangentMode: 0
      - time: .100000001
        value: {x: 0, y: 0, z: -.0173585713, w: .999849319}
        inSlope: {x: 0, y: 0, z: -.205767363, w: -.00357091473}
        outSlope: {x: 0, y: 0, z: -.205767363, w: -.00357091473}
        tangentMode: 0
      - time: .116666667
        value: {x: 0, y: 0, z: -.0207879245, w: .999783933}
        inSlope: {x: 0, y: 0, z: -.205753833, w: -.00427722838}
        outSlope: {x: 0, y: 0, z: -.205753833, w: -.00427722838}
        tangentMode: 0
      - time: .13333334
        value: {x: 0, y: 0, z: -.0242170338, w: .999706745}
        inSlope: {x: 0, y: 0, z: -.205737919, w: -.00498533156}
        outSlope: {x: 0, y: 0, z: -.205737919, w: -.00498533156}
        tangentMode: 1056977524
      - time: .150000006
        value: {x: 0, y: 0, z: -.0276458561, w: .999617755}
        inSlope: {x: 0, y: 0, z: -.205719575, w: -.00568985986}
        outSlope: {x: 0, y: 0, z: -.205719575, w: -.00568985986}
        tangentMode: -1106622560
      - time: .166666672
        value: {x: 0, y: 0, z: -.0310743526, w: .999517083}
        inSlope: {x: 0, y: 0, z: -.2057098, w: -.00604033517}
        outSlope: {x: 0, y: 0, z: -.2057098, w: -.00604033517}
        tangentMode: -1106622560
      m_PreInfinity: 2
      m_PostInfinity: 2
    path: 
  - curve:
      serializedVersion: 2
      m_Curve:
      - time: 0
        value: {x: 0, y: 0, z: -.216215789, w: -.976345599}
        inSlope: {x: 0, y: 0, z: -2.88155413, w: .713345945}
        outSlope: {x: 0, y: 0, z: -2.88155413, w: .713345945}
        tangentMode: 105811996
      - time: .0166666675
        value: {x: 0, y: 0, z: -.264241695, w: -.964456499}
        inSlope: {x: 0, y: 0, z: -3.0431242, w: .844159067}
        outSlope: {x: 0, y: 0, z: -3.0431242, w: .844159067}
        tangentMode: 104899720
      - time: .0333333351
        value: {x: 0, y: 0, z: -.317653269, w: -.948206961}
        inSlope: {x: 0, y: 0, z: -3.27613831, w: 1.10414016}
        outSlope: {x: 0, y: 0, z: -3.27613831, w: 1.10414016}
        tangentMode: 109894528
      - time: .0500000045
        value: {x: 0, y: 0, z: -.373446316, w: -.927651823}
        inSlope: {x: 0, y: 0, z: -3.33257914, w: 1.34336114}
        outSlope: {x: 0, y: 0, z: -3.33257914, w: 1.34336114}
        tangentMode: 109894528
      - time: .0666666701
        value: {x: 0, y: 0, z: -.42873925, w: -.903428257}
        inSlope: {x: 0, y: 0, z: -3.22296762, w: 1.52593744}
        outSlope: {x: 0, y: 0, z: -3.22296762, w: 1.52593744}
        tangentMode: 110367336
      - time: .0833333358
        value: {x: 0, y: 0, z: -.480878562, w: -.876787245}
        inSlope: {x: 0, y: 0, z: -2.96336889, w: 1.61653709}
        outSlope: {x: 0, y: 0, z: -2.96336889, w: 1.61653709}
        tangentMode: 110258516
      - time: .100000001
        value: {x: 0, y: 0, z: -.527518213, w: -.849543691}
        inSlope: {x: 0, y: 0, z: -2.57312298, w: 1.5848459}
        outSlope: {x: 0, y: 0, z: -2.57312298, w: 1.5848459}
        tangentMode: 104899720
      - time: .116666667
        value: {x: 0, y: 0, z: -.566649318, w: -.823959053}
        inSlope: {x: 0, y: 0, z: -2.07114983, w: 1.40917873}
        outSlope: {x: 0, y: 0, z: -2.07114983, w: 1.40917873}
        tangentMode: 110258516
      - time: .13333334
        value: {x: 0, y: 0, z: -.596556544, w: -.802571058}
        inSlope: {x: 0, y: 0, z: -1.47125936, w: 1.07914901}
        outSlope: {x: 0, y: 0, z: -1.47125936, w: 1.07914901}
        tangentMode: 110258516
      - time: .150000006
        value: {x: 0, y: 0, z: -.615691304, w: -.787987411}
        inSlope: {x: 0, y: 0, z: -.777247012, w: .597696364}
        outSlope: {x: 0, y: 0, z: -.777247012, w: .597696364}
        tangentMode: 104899720
      - time: .166666672
        value: {x: 0, y: 0, z: -.622464776, w: -.782647848}
        inSlope: {x: 0, y: 0, z: 0, w: 0}
        outSlope: {x: 0, y: 0, z: 0, w: 0}
        tangentMode: 104899720
      - time: .183333337
        value: {x: 0, y: 0, z: -.615691304, w: -.787987411}
        inSlope: {x: 0, y: 0, z: .777247012, w: -.597696364}
        outSlope: {x: 0, y: 0, z: .777247012, w: -.597696364}
        tangentMode: 104899720
      - time: .200000003
        value: {x: 0, y: 0, z: -.596556544, w: -.802571058}
        inSlope: {x: 0, y: 0, z: 1.47125971, w: -1.07914937}
        outSlope: {x: 0, y: 0, z: 1.47125971, w: -1.07914937}
        tangentMode: 109508928
      - time: .216666669
        value: {x: 0, y: 0, z: -.566649318, w: -.823959053}
        inSlope: {x: 0, y: 0, z: 2.07115006, w: -1.40917909}
        outSlope: {x: 0, y: 0, z: 2.07115006, w: -1.40917909}
        tangentMode: 109508928
      - time: .233333334
        value: {x: 0, y: 0, z: -.527518213, w: -.849543691}
        inSlope: {x: 0, y: 0, z: 2.57312298, w: -1.5848459}
        outSlope: {x: 0, y: 0, z: 2.57312298, w: -1.5848459}
        tangentMode: 109508928
      - time: .25
        value: {x: 0, y: 0, z: -.480878562, w: -.876787245}
        inSlope: {x: 0, y: 0, z: 2.9633677, w: -1.61653638}
        outSlope: {x: 0, y: 0, z: 2.9633677, w: -1.61653638}
        tangentMode: 109508928
      - time: .266666681
        value: {x: 0, y: 0, z: -.42873925, w: -.903428257}
        inSlope: {x: 0, y: 0, z: 3.22297192, w: -1.5259378}
        outSlope: {x: 0, y: 0, z: 3.22297192, w: -1.5259378}
        tangentMode: 109508928
      - time: .283333361
        value: {x: 0, y: 0, z: -.373446077, w: -.927651882}
        inSlope: {x: 0, y: 0, z: 3.33257675, w: -1.34335995}
        outSlope: {x: 0, y: 0, z: 3.33257675, w: -1.34335995}
        tangentMode: 109508928
      - time: .300000042
        value: {x: 0, y: 0, z: -.317653269, w: -.948206961}
        inSlope: {x: 0, y: 0, z: 3.27613592, w: -1.10413933}
        outSlope: {x: 0, y: 0, z: 3.27613592, w: -1.10413933}
        tangentMode: 109508928
      - time: .316666722
        value: {x: 0, y: 0, z: -.264241457, w: -.964456558}
        inSlope: {x: 0, y: 0, z: 3.04312706, w: -.844159722}
        outSlope: {x: 0, y: 0, z: 3.04312706, w: -.844159722}
        tangentMode: 109508928
      - time: .333333343
        value: {x: 0, y: 0, z: -.216215789, w: -.976345599}
        inSlope: {x: 0, y: 0, z: 2.88154793, w: -.713344395}
        outSlope: {x: 0, y: 0, z: 2.88154793, w: -.713344395}
        tangentMode: 109508928
      m_PreInfinity: 2
      m_PostInfinity: 2
    path: Head/Segment1/Segment2
  - curve:
      serializedVersion: 2
      m_Curve:
      - time: 0
        value: {x: 0, y: 0, z: .512715518, w: -.858558536}
        inSlope: {x: 0, y: 0, z: 1.05659366, w: .645861566}
        outSlope: {x: 0, y: 0, z: 1.05659366, w: .645861566}
        tangentMode: 830096844
      - time: .0166666675
        value: {x: 0, y: 0, z: .530325413, w: -.847794175}
        inSlope: {x: 0, y: 0, z: 1.11629248, w: .700340807}
        outSlope: {x: 0, y: 0, z: 1.11629248, w: .700340807}
        tangentMode: 830776780
      - time: .0333333351
        value: {x: 0, y: 0, z: .549925268, w: -.83521384}
        inSlope: {x: 0, y: 0, z: 1.20439386, w: .794311047}
        outSlope: {x: 0, y: 0, z: 1.20439386, w: .794311047}
        tangentMode: 833572560
      - time: .0500000045
        value: {x: 0, y: 0, z: .570471883, w: -.821317136}
        inSlope: {x: 0, y: 0, z: 1.23143244, w: .855674744}
        outSlope: {x: 0, y: 0, z: 1.23143244, w: .855674744}
        tangentMode: 831373628
      - time: .0666666701
        value: {x: 0, y: 0, z: .59097302, w: -.806691349}
        inSlope: {x: 0, y: 0, z: 1.20083582, w: .879020751}
        outSlope: {x: 0, y: 0, z: 1.20083582, w: .879020751}
        tangentMode: 831972352
      - time: .0833333358
        value: {x: 0, y: 0, z: .61049974, w: -.792016447}
        inSlope: {x: 0, y: 0, z: 1.11650002, w: .858934581}
        outSlope: {x: 0, y: 0, z: 1.11650002, w: .858934581}
        tangentMode: 830721252
      - time: .100000001
        value: {x: 0, y: 0, z: .628189683, w: -.778060198}
        inSlope: {x: 0, y: 0, z: .982334137, w: .790661633}
        outSlope: {x: 0, y: 0, z: .982334137, w: .790661633}
        tangentMode: 832052580
      - time: .116666667
        value: {x: 0, y: 0, z: .643244207, w: -.765661061}
        inSlope: {x: 0, y: 0, z: .801656723, w: .670641541}
        outSlope: {x: 0, y: 0, z: .801656723, w: .670641541}
        tangentMode: 831201864
      - time: .13333334
        value: {x: 0, y: 0, z: .654911578, w: -.755705476}
        inSlope: {x: 0, y: 0, z: .576551437, w: .496981025}
        outSlope: {x: 0, y: 0, z: .576551437, w: .496981025}
        tangentMode: 832001680
      - time: .150000006
        value: {x: 0, y: 0, z: .662462592, w: -.749095023}
        inSlope: {x: 0, y: 0, z: .307252437, w: .269960791}
        outSlope: {x: 0, y: 0, z: .307252437, w: .269960791}
        tangentMode: 831016488
      - time: .166666672
        value: {x: 0, y: 0, z: .665153325, w: -.746706784}
        inSlope: {x: 0, y: 0, z: 0, w: 0}
        outSlope: {x: 0, y: 0, z: 0, w: 0}
        tangentMode: 835473504
      - time: .183333337
        value: {x: 0, y: 0, z: .662462592, w: -.749095023}
        inSlope: {x: 0, y: 0, z: -.307252437, w: -.269960791}
        outSlope: {x: 0, y: 0, z: -.307252437, w: -.269960791}
        tangentMode: 832059108
      - time: .200000003
        value: {x: 0, y: 0, z: .654911578, w: -.755705476}
        inSlope: {x: 0, y: 0, z: -.576551616, w: -.496981204}
        outSlope: {x: 0, y: 0, z: -.576551616, w: -.496981204}
        tangentMode: 1102053376
      - time: .216666669
        value: {x: 0, y: 0, z: .643244207, w: -.765661061}
        inSlope: {x: 0, y: 0, z: -.801656902, w: -.67064172}
        outSlope: {x: 0, y: 0, z: -.801656902, w: -.67064172}
        tangentMode: 1102053376
      - time: .233333334
        value: {x: 0, y: 0, z: .628189683, w: -.778060198}
        inSlope: {x: 0, y: 0, z: -.982334137, w: -.790661633}
        outSlope: {x: 0, y: 0, z: -.982334137, w: -.790661633}
        tangentMode: 1102053376
      - time: .25
        value: {x: 0, y: 0, z: .61049974, w: -.792016447}
        inSlope: {x: 0, y: 0, z: -1.11649942, w: -.858934164}
        outSlope: {x: 0, y: 0, z: -1.11649942, w: -.858934164}
        tangentMode: 1102053376
      - time: .266666681
        value: {x: 0, y: 0, z: .59097302, w: -.806691349}
        inSlope: {x: 0, y: 0, z: -1.20083475, w: -.879019976}
        outSlope: {x: 0, y: 0, z: -1.20083475, w: -.879019976}
        tangentMode: 1102053376
      - time: .283333361
        value: {x: 0, y: 0, z: .570471883, w: -.821317136}
        inSlope: {x: 0, y: 0, z: -1.23143148, w: -.855674028}
        outSlope: {x: 0, y: 0, z: -1.23143148, w: -.855674028}
        tangentMode: 1102053376
      - time: .300000042
        value: {x: 0, y: 0, z: .549925268, w: -.83521384}
        inSlope: {x: 0, y: 0, z: -1.20439839, w: -.794314027}
        outSlope: {x: 0, y: 0, z: -1.20439839, w: -.794314027}
        tangentMode: 1102053376
      - time: .316666722
        value: {x: 0, y: 0, z: .530325234, w: -.847794294}
        inSlope: {x: 0, y: 0, z: -1.11629343, w: -.700341463}
        outSlope: {x: 0, y: 0, z: -1.11629343, w: -.700341463}
        tangentMode: 1102053376
      - time: .333333343
        value: {x: 0, y: 0, z: .512715518, w: -.858558536}
        inSlope: {x: 0, y: 0, z: -1.05658579, w: -.645856261}
        outSlope: {x: 0, y: 0, z: -1.05658579, w: -.645856261}
        tangentMode: 1102053376
      m_PreInfinity: 2
      m_PostInfinity: 2
    path: Head/Segment1
  m_CompressedRotationCurves: []
  m_PositionCurves:
  - curve:
      serializedVersion: 2
      m_Curve:
      - time: 0
        value: {x: -.00736753643, y: -.0198499765, z: 0}
        inSlope: {x: -.0577950329, y: -.0188999847, z: 0}
        outSlope: {x: -.0577950329, y: -.0188999847, z: 0}
        tangentMode: 836564481
      - time: .166666672
        value: {x: -.0170000419, y: -.022999974, z: 0}
        inSlope: {x: 0, y: 0, z: 0}
        outSlope: {x: 0, y: 0, z: 0}
        tangentMode: 0
      - time: .333333343
        value: {x: -.00736753643, y: -.0198499765, z: 0}
        inSlope: {x: .0577950329, y: .0188999847, z: 0}
        outSlope: {x: .0577950329, y: .0188999847, z: 0}
        tangentMode: 4456570
      m_PreInfinity: 2
      m_PostInfinity: 2
    path: Head/Segment1
  - curve:
      serializedVersion: 2
      m_Curve:
      - time: 0
        value: {x: 0, y: 0, z: 0}
        inSlope: {x: -.107999995, y: .791999996, z: 0}
        outSlope: {x: -.107999995, y: .791999996, z: 0}
        tangentMode: 835965336
      - time: .166666672
        value: {x: -.0179999992, y: .131999999, z: 0}
        inSlope: {x: 0, y: 0, z: 0}
        outSlope: {x: 0, y: 0, z: 0}
        tangentMode: 1093664768
      - time: .333333343
        value: {x: 0, y: 0, z: 0}
        inSlope: {x: .107999995, y: -.791999996, z: 0}
        outSlope: {x: .107999995, y: -.791999996, z: 0}
        tangentMode: 0
      m_PreInfinity: 2
      m_PostInfinity: 2
    path: Head
  - curve:
      serializedVersion: 2
      m_Curve:
      - time: 0
        value: {x: .245455056, y: -.197446227, z: 0}
        inSlope: {x: -.119295269, y: -.198646724, z: 0}
        outSlope: {x: -.119295269, y: -.198646724, z: 0}
        tangentMode: 1109393408
      - time: .166666672
        value: {x: .225572512, y: -.230554014, z: 0}
        inSlope: {x: 0, y: 0, z: 0}
        outSlope: {x: 0, y: 0, z: 0}
        tangentMode: 0
      - time: .333333343
        value: {x: .245455056, y: -.197446227, z: 0}
        inSlope: {x: .119295269, y: .198646724, z: 0}
        outSlope: {x: .119295269, y: .198646724, z: 0}
        tangentMode: 1120665600
      m_PreInfinity: 2
      m_PostInfinity: 2
    path: Head/Segment1/Segment2
  m_ScaleCurves:
  - curve:
      serializedVersion: 2
      m_Curve:
      - time: 0
        value: {x: -1, y: -1, z: 1}
        inSlope: {x: 0, y: 0, z: 0}
        outSlope: {x: 0, y: 0, z: 0}
        tangentMode: 1952543855
      - time: .333333343
        value: {x: -1, y: -1, z: 1}
        inSlope: {x: 0, y: 0, z: 0}
        outSlope: {x: 0, y: 0, z: 0}
        tangentMode: 1093664768
      m_PreInfinity: 2
      m_PostInfinity: 2
    path: Head/Segment1
  m_FloatCurves: []
  m_PPtrCurves:
  - curve:
    - time: 0
      value: {fileID: 21300008, guid: c246b053c7de4404cacdc86b54eef3ee, type: 3}
    - time: .333333343
      value: {fileID: 21300008, guid: c246b053c7de4404cacdc86b54eef3ee, type: 3}
    attribute: m_Sprite
    path: Head
    classID: 212
    script: {fileID: 0}
  m_SampleRate: 60
  m_WrapMode: 0
  m_Bounds:
    m_Center: {x: 0, y: 0, z: 0}
    m_Extent: {x: 0, y: 0, z: 0}
  m_ClipBindingConstant:
    genericBindings:
    - path: 1851652470
      attribute: 1
      script: {fileID: 0}
      classID: 4
      customType: 0
      isPPtrCurve: 0
    - path: 130111906
      attribute: 1
      script: {fileID: 0}
      classID: 4
      customType: 0
      isPPtrCurve: 0
    - path: 325131695
      attribute: 1
      script: {fileID: 0}
      classID: 4
      customType: 0
      isPPtrCurve: 0
    - path: 0
      attribute: 2
      script: {fileID: 0}
      classID: 4
      customType: 0
      isPPtrCurve: 0
    - path: 325131695
      attribute: 2
      script: {fileID: 0}
      classID: 4
      customType: 0
      isPPtrCurve: 0
    - path: 1851652470
      attribute: 2
      script: {fileID: 0}
      classID: 4
      customType: 0
      isPPtrCurve: 0
    - path: 130111906
      attribute: 0
      script: {fileID: 0}
      classID: 212
      customType: 23
      isPPtrCurve: 1
    - path: 1851652470
      attribute: 3
      script: {fileID: 0}
      classID: 4
      customType: 0
      isPPtrCurve: 0
    pptrCurveMapping:
    - {fileID: 21300008, guid: c246b053c7de4404cacdc86b54eef3ee, type: 3}
    - {fileID: 21300008, guid: c246b053c7de4404cacdc86b54eef3ee, type: 3}
  m_AnimationClipSettings:
    serializedVersion: 2
    m_StartTime: 0
    m_StopTime: .350000024
    m_OrientationOffsetY: 0
    m_Level: 0
    m_CycleOffset: 0
    m_LoopTime: 0
    m_LoopBlend: 0
    m_LoopBlendOrientation: 0
    m_LoopBlendPositionY: 0
    m_LoopBlendPositionXZ: 0
    m_KeepOriginalOrientation: 0
    m_KeepOriginalPositionY: 1
    m_KeepOriginalPositionXZ: 0
    m_HeightFromFeet: 0
    m_Mirror: 0
  m_EditorCurves:
  - curve:
      serializedVersion: 2
      m_Curve:
      - time: 0
        value: -.00736753643
        inSlope: -.0577950329
        outSlope: -.0577950329
        tangentMode: 10
      - time: .166666672
        value: -.0170000419
        inSlope: 0
        outSlope: 0
        tangentMode: 10
      - time: .333333343
        value: -.00736753643
        inSlope: .0577950329
        outSlope: .0577950329
        tangentMode: 10
      m_PreInfinity: 2
      m_PostInfinity: 2
    attribute: m_LocalPosition.x
    path: Head/Segment1
    classID: 4
    script: {fileID: 0}
  - curve:
      serializedVersion: 2
      m_Curve:
      - time: 0
        value: -.0198499765
        inSlope: -.0188999847
        outSlope: -.0188999847
        tangentMode: 10
      - time: .166666672
        value: -.022999974
        inSlope: 0
        outSlope: 0
        tangentMode: 10
      - time: .333333343
        value: -.0198499765
        inSlope: .0188999847
        outSlope: .0188999847
        tangentMode: 10
      m_PreInfinity: 2
      m_PostInfinity: 2
    attribute: m_LocalPosition.y
    path: Head/Segment1
    classID: 4
    script: {fileID: 0}
  - curve:
      serializedVersion: 2
      m_Curve:
      - time: 0
        value: 0
        inSlope: 0
        outSlope: 0
        tangentMode: 10
      - time: .166666672
        value: 0
        inSlope: 0
        outSlope: 0
        tangentMode: 10
      - time: .333333343
        value: 0
        inSlope: 0
        outSlope: 0
        tangentMode: 10
      m_PreInfinity: 2
      m_PostInfinity: 2
    attribute: m_LocalPosition.z
    path: Head/Segment1
    classID: 4
    script: {fileID: 0}
  - curve:
      serializedVersion: 2
      m_Curve:
      - time: 0
        value: 0
        inSlope: 0
        outSlope: 0
        tangentMode: 10
      - time: .166666672
        value: 0
        inSlope: 0
        outSlope: 0
        tangentMode: 10
      - time: .333333343
        value: 0
        inSlope: 0
        outSlope: 0
        tangentMode: 10
      m_PreInfinity: 2
      m_PostInfinity: 2
    attribute: m_LocalPosition.z
    path: Head
    classID: 4
    script: {fileID: 0}
  - curve:
      serializedVersion: 2
      m_Curve:
      - time: 0
        value: 0
        inSlope: .791999996
        outSlope: .791999996
        tangentMode: 10
      - time: .166666672
        value: .131999999
        inSlope: 0
        outSlope: 0
        tangentMode: 10
      - time: .333333343
        value: 0
        inSlope: -.791999996
        outSlope: -.791999996
        tangentMode: 10
      m_PreInfinity: 2
      m_PostInfinity: 2
    attribute: m_LocalPosition.y
    path: Head
    classID: 4
    script: {fileID: 0}
  - curve:
      serializedVersion: 2
      m_Curve:
      - time: 0
        value: 0
        inSlope: -.107999995
        outSlope: -.107999995
        tangentMode: 10
      - time: .166666672
        value: -.0179999992
        inSlope: 0
        outSlope: 0
        tangentMode: 10
      - time: .333333343
        value: 0
        inSlope: .107999995
        outSlope: .107999995
        tangentMode: 10
      m_PreInfinity: 2
      m_PostInfinity: 2
    attribute: m_LocalPosition.x
    path: Head
    classID: 4
    script: {fileID: 0}
  - curve:
      serializedVersion: 2
      m_Curve:
      - time: 0
        value: .999994814
        inSlope: .000311136217
        outSlope: .000311136217
        tangentMode: 0
      - time: .0166666675
        value: 1
        inSlope: -4.29153442e-05
        outSlope: -4.29153442e-05
        tangentMode: 0
      - time: .0333333351
        value: .999993384
        inSlope: -.000749230268
        outSlope: -.000749230268
        tangentMode: 0
      - time: .0500000045
        value: .999975026
        inSlope: -.00145554543
        outSlope: -.00145554543
        tangentMode: 0
      - time: .0666666701
        value: .999944866
        inSlope: -.0021618607
        outSlope: -.0021618607
        tangentMode: 0
      - time: .0833333358
        value: .999902964
        inSlope: -.0028663876
        outSlope: -.0028663876
        tangentMode: 0
      - time: .100000001
        value: .999849319
        inSlope: -.00357091473
        outSlope: -.00357091473
        tangentMode: 0
      - time: .116666667
        value: .999783933
        inSlope: -.00427722838
        outSlope: -.00427722838
        tangentMode: 0
      - time: .13333334
        value: .999706745
        inSlope: -.00498533156
        outSlope: -.00498533156
        tangentMode: 0
      - time: .150000006
        value: .999617755
        inSlope: -.00568985986
        outSlope: -.00568985986
        tangentMode: 0
      - time: .166666672
        value: .999517083
        inSlope: -.00604033517
        outSlope: -.00604033517
        tangentMode: 0
      m_PreInfinity: 2
      m_PostInfinity: 2
    attribute: m_LocalRotation.w
    path: 
    classID: 4
    script: {fileID: 0}
  - curve:
      serializedVersion: 2
      m_Curve:
      - time: 0
        value: -1
        inSlope: 0
        outSlope: 0
        tangentMode: 10
      - time: .333333343
        value: -1
        inSlope: 0
        outSlope: 0
        tangentMode: 10
      m_PreInfinity: 2
      m_PostInfinity: 2
    attribute: m_LocalScale.x
    path: Head/Segment1
    classID: 4
    script: {fileID: 0}
  - curve:
      serializedVersion: 2
      m_Curve:
      - time: 0
        value: -1
        inSlope: 0
        outSlope: 0
        tangentMode: 10
      - time: .333333343
        value: -1
        inSlope: 0
        outSlope: 0
        tangentMode: 10
      m_PreInfinity: 2
      m_PostInfinity: 2
    attribute: m_LocalScale.y
    path: Head/Segment1
    classID: 4
    script: {fileID: 0}
  - curve:
      serializedVersion: 2
      m_Curve:
      - time: 0
        value: 1
        inSlope: 0
        outSlope: 0
        tangentMode: 10
      - time: .333333343
        value: 1
        inSlope: 0
        outSlope: 0
        tangentMode: 10
      m_PreInfinity: 2
      m_PostInfinity: 2
    attribute: m_LocalScale.z
    path: Head/Segment1
    classID: 4
    script: {fileID: 0}
  - curve:
      serializedVersion: 2
      m_Curve:
      - time: 0
        value: .245455056
        inSlope: -.119295269
        outSlope: -.119295269
        tangentMode: 10
      - time: .166666672
        value: .225572512
        inSlope: 0
        outSlope: 0
        tangentMode: 10
      - time: .333333343
        value: .245455056
        inSlope: .119295269
        outSlope: .119295269
        tangentMode: 10
      m_PreInfinity: 2
      m_PostInfinity: 2
    attribute: m_LocalPosition.x
    path: Head/Segment1/Segment2
    classID: 4
    script: {fileID: 0}
  - curve:
      serializedVersion: 2
      m_Curve:
      - time: 0
        value: -.197446227
        inSlope: -.198646724
        outSlope: -.198646724
        tangentMode: 10
      - time: .166666672
        value: -.230554014
        inSlope: 0
        outSlope: 0
        tangentMode: 10
      - time: .333333343
        value: -.197446227
        inSlope: .198646724
        outSlope: .198646724
        tangentMode: 10
      m_PreInfinity: 2
      m_PostInfinity: 2
    attribute: m_LocalPosition.y
    path: Head/Segment1/Segment2
    classID: 4
    script: {fileID: 0}
  - curve:
      serializedVersion: 2
      m_Curve:
      - time: 0
        value: 0
        inSlope: 0
        outSlope: 0
        tangentMode: 10
      - time: .166666672
        value: 0
        inSlope: 0
        outSlope: 0
        tangentMode: 10
      - time: .333333343
        value: 0
        inSlope: 0
        outSlope: 0
        tangentMode: 10
      m_PreInfinity: 2
      m_PostInfinity: 2
    attribute: m_LocalPosition.z
    path: Head/Segment1/Segment2
    classID: 4
    script: {fileID: 0}
  - curve:
      serializedVersion: 2
      m_Curve:
      - time: 0
        value: .00322042196
        inSlope: -.205798373
        outSlope: -.205798373
        tangentMode: 0
      - time: .0166666675
        value: -.000209550999
        inSlope: -.205798298
        outSlope: -.205798298
        tangentMode: 0
      - time: .0333333351
        value: -.00363952131
        inSlope: -.205796927
        outSlope: -.205796927
        tangentMode: 0
      - time: .0500000045
        value: -.00706944941
        inSlope: -.205793172
        outSlope: -.205793172
        tangentMode: 0
      - time: .0666666701
        value: -.0104992939
        inSlope: -.205786929
        outSlope: -.205786929
        tangentMode: 0
      - time: .0833333358
        value: -.0139290132
        inSlope: -.205778331
        outSlope: -.205778331
        tangentMode: 0
      - time: .100000001
        value: -.0173585713
        inSlope: -.205767363
        outSlope: -.205767363
        tangentMode: 0
      - time: .116666667
        value: -.0207879245
        inSlope: -.205753833
        outSlope: -.205753833
        tangentMode: 0
      - time: .13333334
        value: -.0242170338
        inSlope: -.205737919
        outSlope: -.205737919
        tangentMode: 0
      - time: .150000006
        value: -.0276458561
        inSlope: -.205719575
        outSlope: -.205719575
        tangentMode: 0
      - time: .166666672
        value: -.0310743526
        inSlope: -.2057098
        outSlope: -.2057098
        tangentMode: 0
      m_PreInfinity: 2
      m_PostInfinity: 2
    attribute: m_LocalRotation.z
    path: 
    classID: 4
    script: {fileID: 0}
  - curve:
      serializedVersion: 2
      m_Curve:
      - time: 0
        value: 0
        inSlope: 0
        outSlope: 0
        tangentMode: 0
      - time: .0166666675
        value: 0
        inSlope: 0
        outSlope: 0
        tangentMode: 0
      - time: .0333333351
        value: 0
        inSlope: 0
        outSlope: 0
        tangentMode: 0
      - time: .0500000045
        value: 0
        inSlope: 0
        outSlope: 0
        tangentMode: 0
      - time: .0666666701
        value: 0
        inSlope: 0
        outSlope: 0
        tangentMode: 0
      - time: .0833333358
        value: 0
        inSlope: 0
        outSlope: 0
        tangentMode: 0
      - time: .100000001
        value: 0
        inSlope: 0
        outSlope: 0
        tangentMode: 0
      - time: .116666667
        value: 0
        inSlope: 0
        outSlope: 0
        tangentMode: 0
      - time: .13333334
        value: 0
        inSlope: 0
        outSlope: 0
        tangentMode: 0
      - time: .150000006
        value: 0
        inSlope: 0
        outSlope: 0
        tangentMode: 0
      - time: .166666672
        value: 0
        inSlope: 0
        outSlope: 0
        tangentMode: 0
      m_PreInfinity: 2
      m_PostInfinity: 2
    attribute: m_LocalRotation.y
    path: 
    classID: 4
    script: {fileID: 0}
  - curve:
      serializedVersion: 2
      m_Curve:
      - time: 0
        value: 0
        inSlope: 0
        outSlope: 0
        tangentMode: 0
      - time: .0166666675
        value: 0
        inSlope: 0
        outSlope: 0
        tangentMode: 0
      - time: .0333333351
        value: 0
        inSlope: 0
        outSlope: 0
        tangentMode: 0
      - time: .0500000045
        value: 0
        inSlope: 0
        outSlope: 0
        tangentMode: 0
      - time: .0666666701
        value: 0
        inSlope: 0
        outSlope: 0
        tangentMode: 0
      - time: .0833333358
        value: 0
        inSlope: 0
        outSlope: 0
        tangentMode: 0
      - time: .100000001
        value: 0
        inSlope: 0
        outSlope: 0
        tangentMode: 0
      - time: .116666667
        value: 0
        inSlope: 0
        outSlope: 0
        tangentMode: 0
      - time: .13333334
        value: 0
        inSlope: 0
        outSlope: 0
        tangentMode: 0
      - time: .150000006
        value: 0
        inSlope: 0
        outSlope: 0
        tangentMode: 0
      - time: .166666672
        value: 0
        inSlope: 0
        outSlope: 0
        tangentMode: 0
      m_PreInfinity: 2
      m_PostInfinity: 2
    attribute: m_LocalRotation.x
    path: 
    classID: 4
    script: {fileID: 0}
  - curve:
      serializedVersion: 2
      m_Curve:
      - time: 0
        value: -.976345599
        inSlope: .713345945
        outSlope: .713345945
        tangentMode: 0
      - time: .0166666675
        value: -.964456499
        inSlope: .844159067
        outSlope: .844159067
        tangentMode: 0
      - time: .0333333351
        value: -.948206961
        inSlope: 1.10414016
        outSlope: 1.10414016
        tangentMode: 0
      - time: .0500000045
        value: -.927651823
        inSlope: 1.34336114
        outSlope: 1.34336114
        tangentMode: 0
      - time: .0666666701
        value: -.903428257
        inSlope: 1.52593744
        outSlope: 1.52593744
        tangentMode: 0
      - time: .0833333358
        value: -.876787245
        inSlope: 1.61653709
        outSlope: 1.61653709
        tangentMode: 0
      - time: .100000001
        value: -.849543691
        inSlope: 1.5848459
        outSlope: 1.5848459
        tangentMode: 0
      - time: .116666667
        value: -.823959053
        inSlope: 1.40917873
        outSlope: 1.40917873
        tangentMode: 0
      - time: .13333334
        value: -.802571058
        inSlope: 1.07914901
        outSlope: 1.07914901
        tangentMode: 0
      - time: .150000006
        value: -.787987411
        inSlope: .597696364
        outSlope: .597696364
        tangentMode: 0
      - time: .166666672
        value: -.782647848
        inSlope: 0
        outSlope: 0
        tangentMode: 0
      - time: .183333337
        value: -.787987411
        inSlope: -.597696364
        outSlope: -.597696364
        tangentMode: 0
      - time: .200000003
        value: -.802571058
        inSlope: -1.07914937
        outSlope: -1.07914937
        tangentMode: 0
      - time: .216666669
        value: -.823959053
        inSlope: -1.40917909
        outSlope: -1.40917909
        tangentMode: 0
      - time: .233333334
        value: -.849543691
        inSlope: -1.5848459
        outSlope: -1.5848459
        tangentMode: 0
      - time: .25
        value: -.876787245
        inSlope: -1.61653638
        outSlope: -1.61653638
        tangentMode: 0
      - time: .266666681
        value: -.903428257
        inSlope: -1.5259378
        outSlope: -1.5259378
        tangentMode: 0
      - time: .283333361
        value: -.927651882
        inSlope: -1.34335995
        outSlope: -1.34335995
        tangentMode: 0
      - time: .300000042
        value: -.948206961
        inSlope: -1.10413933
        outSlope: -1.10413933
        tangentMode: 0
      - time: .316666722
        value: -.964456558
        inSlope: -.844159722
        outSlope: -.844159722
        tangentMode: 0
      - time: .333333343
        value: -.976345599
        inSlope: -.713344395
        outSlope: -.713344395
        tangentMode: 0
      m_PreInfinity: 2
      m_PostInfinity: 2
    attribute: m_LocalRotation.w
    path: Head/Segment1/Segment2
    classID: 4
    script: {fileID: 0}
  - curve:
      serializedVersion: 2
      m_Curve:
      - time: 0
        value: -.216215789
        inSlope: -2.88155413
        outSlope: -2.88155413
        tangentMode: 0
      - time: .0166666675
        value: -.264241695
        inSlope: -3.0431242
        outSlope: -3.0431242
        tangentMode: 0
      - time: .0333333351
        value: -.317653269
        inSlope: -3.27613831
        outSlope: -3.27613831
        tangentMode: 0
      - time: .0500000045
        value: -.373446316
        inSlope: -3.33257914
        outSlope: -3.33257914
        tangentMode: 0
      - time: .0666666701
        value: -.42873925
        inSlope: -3.22296762
        outSlope: -3.22296762
        tangentMode: 0
      - time: .0833333358
        value: -.480878562
        inSlope: -2.96336889
        outSlope: -2.96336889
        tangentMode: 0
      - time: .100000001
        value: -.527518213
        inSlope: -2.57312298
        outSlope: -2.57312298
        tangentMode: 0
      - time: .116666667
        value: -.566649318
        inSlope: -2.07114983
        outSlope: -2.07114983
        tangentMode: 0
      - time: .13333334
        value: -.596556544
        inSlope: -1.47125936
        outSlope: -1.47125936
        tangentMode: 0
      - time: .150000006
        value: -.615691304
        inSlope: -.777247012
        outSlope: -.777247012
        tangentMode: 0
      - time: .166666672
        value: -.622464776
        inSlope: 0
        outSlope: 0
        tangentMode: 0
      - time: .183333337
        value: -.615691304
        inSlope: .777247012
        outSlope: .777247012
        tangentMode: 0
      - time: .200000003
        value: -.596556544
        inSlope: 1.47125971
        outSlope: 1.47125971
        tangentMode: 0
      - time: .216666669
        value: -.566649318
        inSlope: 2.07115006
        outSlope: 2.07115006
        tangentMode: 0
      - time: .233333334
        value: -.527518213
        inSlope: 2.57312298
        outSlope: 2.57312298
        tangentMode: 0
      - time: .25
        value: -.480878562
        inSlope: 2.9633677
        outSlope: 2.9633677
        tangentMode: 0
      - time: .266666681
        value: -.42873925
        inSlope: 3.22297192
        outSlope: 3.22297192
        tangentMode: 0
      - time: .283333361
        value: -.373446077
        inSlope: 3.33257675
        outSlope: 3.33257675
        tangentMode: 0
      - time: .300000042
        value: -.317653269
        inSlope: 3.27613592
        outSlope: 3.27613592
        tangentMode: 0
      - time: .316666722
        value: -.264241457
        inSlope: 3.04312706
        outSlope: 3.04312706
        tangentMode: 0
      - time: .333333343
        value: -.216215789
        inSlope: 2.88154793
        outSlope: 2.88154793
        tangentMode: 0
      m_PreInfinity: 2
      m_PostInfinity: 2
    attribute: m_LocalRotation.z
    path: Head/Segment1/Segment2
    classID: 4
    script: {fileID: 0}
  - curve:
      serializedVersion: 2
      m_Curve:
      - time: 0
        value: 0
        inSlope: 0
        outSlope: 0
        tangentMode: 0
      - time: .0166666675
        value: 0
        inSlope: 0
        outSlope: 0
        tangentMode: 0
      - time: .0333333351
        value: 0
        inSlope: 0
        outSlope: 0
        tangentMode: 0
      - time: .0500000045
        value: 0
        inSlope: 0
        outSlope: 0
        tangentMode: 0
      - time: .0666666701
        value: 0
        inSlope: 0
        outSlope: 0
        tangentMode: 0
      - time: .0833333358
        value: 0
        inSlope: 0
        outSlope: 0
        tangentMode: 0
      - time: .100000001
        value: 0
        inSlope: 0
        outSlope: 0
        tangentMode: 0
      - time: .116666667
        value: 0
        inSlope: 0
        outSlope: 0
        tangentMode: 0
      - time: .13333334
        value: 0
        inSlope: 0
        outSlope: 0
        tangentMode: 0
      - time: .150000006
        value: 0
        inSlope: 0
        outSlope: 0
        tangentMode: 0
      - time: .166666672
        value: 0
        inSlope: 0
        outSlope: 0
        tangentMode: 0
      - time: .183333337
        value: 0
        inSlope: 0
        outSlope: 0
        tangentMode: 0
      - time: .200000003
        value: 0
        inSlope: 0
        outSlope: 0
        tangentMode: 0
      - time: .216666669
        value: 0
        inSlope: 0
        outSlope: 0
        tangentMode: 0
      - time: .233333334
        value: 0
        inSlope: 0
        outSlope: 0
        tangentMode: 0
      - time: .25
        value: 0
        inSlope: 0
        outSlope: 0
        tangentMode: 0
      - time: .266666681
        value: 0
        inSlope: 0
        outSlope: 0
        tangentMode: 0
      - time: .283333361
        value: 0
        inSlope: 0
        outSlope: 0
        tangentMode: 0
      - time: .300000042
        value: 0
        inSlope: 0
        outSlope: 0
        tangentMode: 0
      - time: .316666722
        value: 0
        inSlope: 0
        outSlope: 0
        tangentMode: 0
      - time: .333333343
        value: 0
        inSlope: 0
        outSlope: 0
        tangentMode: 0
      m_PreInfinity: 2
      m_PostInfinity: 2
    attribute: m_LocalRotation.y
    path: Head/Segment1/Segment2
    classID: 4
    script: {fileID: 0}
  - curve:
      serializedVersion: 2
      m_Curve:
      - time: 0
        value: 0
        inSlope: 0
        outSlope: 0
        tangentMode: 0
      - time: .0166666675
        value: 0
        inSlope: 0
        outSlope: 0
        tangentMode: 0
      - time: .0333333351
        value: 0
        inSlope: 0
        outSlope: 0
        tangentMode: 0
      - time: .0500000045
        value: 0
        inSlope: 0
        outSlope: 0
        tangentMode: 0
      - time: .0666666701
        value: 0
        inSlope: 0
        outSlope: 0
        tangentMode: 0
      - time: .0833333358
        value: 0
        inSlope: 0
        outSlope: 0
        tangentMode: 0
      - time: .100000001
        value: 0
        inSlope: 0
        outSlope: 0
        tangentMode: 0
      - time: .116666667
        value: 0
        inSlope: 0
        outSlope: 0
        tangentMode: 0
      - time: .13333334
        value: 0
        inSlope: 0
        outSlope: 0
        tangentMode: 0
      - time: .150000006
        value: 0
        inSlope: 0
        outSlope: 0
        tangentMode: 0
      - time: .166666672
        value: 0
        inSlope: 0
        outSlope: 0
        tangentMode: 0
      - time: .183333337
        value: 0
        inSlope: 0
        outSlope: 0
        tangentMode: 0
      - time: .200000003
        value: 0
        inSlope: 0
        outSlope: 0
        tangentMode: 0
      - time: .216666669
        value: 0
        inSlope: 0
        outSlope: 0
        tangentMode: 0
      - time: .233333334
        value: 0
        inSlope: 0
        outSlope: 0
        tangentMode: 0
      - time: .25
        value: 0
        inSlope: 0
        outSlope: 0
        tangentMode: 0
      - time: .266666681
        value: 0
        inSlope: 0
        outSlope: 0
        tangentMode: 0
      - time: .283333361
        value: 0
        inSlope: 0
        outSlope: 0
        tangentMode: 0
      - time: .300000042
        value: 0
        inSlope: 0
        outSlope: 0
        tangentMode: 0
      - time: .316666722
        value: 0
        inSlope: 0
        outSlope: 0
        tangentMode: 0
      - time: .333333343
        value: 0
        inSlope: 0
        outSlope: 0
        tangentMode: 0
      m_PreInfinity: 2
      m_PostInfinity: 2
    attribute: m_LocalRotation.x
    path: Head/Segment1/Segment2
    classID: 4
    script: {fileID: 0}
  - curve:
      serializedVersion: 2
      m_Curve:
      - time: 0
        value: 0
        inSlope: 0
        outSlope: 0
        tangentMode: 0
      - time: .0166666675
        value: 0
        inSlope: 0
        outSlope: 0
        tangentMode: 0
      - time: .0333333351
        value: 0
        inSlope: 0
        outSlope: 0
        tangentMode: 0
      - time: .0500000045
        value: 0
        inSlope: 0
        outSlope: 0
        tangentMode: 0
      - time: .0666666701
        value: 0
        inSlope: 0
        outSlope: 0
        tangentMode: 0
      - time: .0833333358
        value: 0
        inSlope: 0
        outSlope: 0
        tangentMode: 0
      - time: .100000001
        value: 0
        inSlope: 0
        outSlope: 0
        tangentMode: 0
      - time: .116666667
        value: 0
        inSlope: 0
        outSlope: 0
        tangentMode: 0
      - time: .13333334
        value: 0
        inSlope: 0
        outSlope: 0
        tangentMode: 0
      - time: .150000006
        value: 0
        inSlope: 0
        outSlope: 0
        tangentMode: 0
      - time: .166666672
        value: 0
        inSlope: 0
        outSlope: 0
        tangentMode: 0
      - time: .183333337
        value: 0
        inSlope: 0
        outSlope: 0
        tangentMode: 0
      - time: .200000003
        value: 0
        inSlope: 0
        outSlope: 0
        tangentMode: 0
      - time: .216666669
        value: 0
        inSlope: 0
        outSlope: 0
        tangentMode: 0
      - time: .233333334
        value: 0
        inSlope: 0
        outSlope: 0
        tangentMode: 0
      - time: .25
        value: 0
        inSlope: 0
        outSlope: 0
        tangentMode: 0
      - time: .266666681
        value: 0
        inSlope: 0
        outSlope: 0
        tangentMode: 0
      - time: .283333361
        value: 0
        inSlope: 0
        outSlope: 0
        tangentMode: 0
      - time: .300000042
        value: 0
        inSlope: 0
        outSlope: 0
        tangentMode: 0
      - time: .316666722
        value: 0
        inSlope: 0
        outSlope: 0
        tangentMode: 0
      - time: .333333343
        value: 0
        inSlope: 0
        outSlope: 0
        tangentMode: 0
      m_PreInfinity: 2
      m_PostInfinity: 2
    attribute: m_LocalRotation.x
    path: Head/Segment1
    classID: 4
    script: {fileID: 0}
  - curve:
      serializedVersion: 2
      m_Curve:
      - time: 0
        value: 0
        inSlope: 0
        outSlope: 0
        tangentMode: 0
      - time: .0166666675
        value: 0
        inSlope: 0
        outSlope: 0
        tangentMode: 0
      - time: .0333333351
        value: 0
        inSlope: 0
        outSlope: 0
        tangentMode: 0
      - time: .0500000045
        value: 0
        inSlope: 0
        outSlope: 0
        tangentMode: 0
      - time: .0666666701
        value: 0
        inSlope: 0
        outSlope: 0
        tangentMode: 0
      - time: .0833333358
        value: 0
        inSlope: 0
        outSlope: 0
        tangentMode: 0
      - time: .100000001
        value: 0
        inSlope: 0
        outSlope: 0
        tangentMode: 0
      - time: .116666667
        value: 0
        inSlope: 0
        outSlope: 0
        tangentMode: 0
      - time: .13333334
        value: 0
        inSlope: 0
        outSlope: 0
        tangentMode: 0
      - time: .150000006
        value: 0
        inSlope: 0
        outSlope: 0
        tangentMode: 0
      - time: .166666672
        value: 0
        inSlope: 0
        outSlope: 0
        tangentMode: 0
      - time: .183333337
        value: 0
        inSlope: 0
        outSlope: 0
        tangentMode: 0
      - time: .200000003
        value: 0
        inSlope: 0
        outSlope: 0
        tangentMode: 0
      - time: .216666669
        value: 0
        inSlope: 0
        outSlope: 0
        tangentMode: 0
      - time: .233333334
        value: 0
        inSlope: 0
        outSlope: 0
        tangentMode: 0
      - time: .25
        value: 0
        inSlope: 0
        outSlope: 0
        tangentMode: 0
      - time: .266666681
        value: 0
        inSlope: 0
        outSlope: 0
        tangentMode: 0
      - time: .283333361
        value: 0
        inSlope: 0
        outSlope: 0
        tangentMode: 0
      - time: .300000042
        value: 0
        inSlope: 0
        outSlope: 0
        tangentMode: 0
      - time: .316666722
        value: 0
        inSlope: 0
        outSlope: 0
        tangentMode: 0
      - time: .333333343
        value: 0
        inSlope: 0
        outSlope: 0
        tangentMode: 0
      m_PreInfinity: 2
      m_PostInfinity: 2
    attribute: m_LocalRotation.y
    path: Head/Segment1
    classID: 4
    script: {fileID: 0}
  - curve:
      serializedVersion: 2
      m_Curve:
      - time: 0
        value: .512715518
        inSlope: 1.05659366
        outSlope: 1.05659366
        tangentMode: 0
      - time: .0166666675
        value: .530325413
        inSlope: 1.11629248
        outSlope: 1.11629248
        tangentMode: 0
      - time: .0333333351
        value: .549925268
        inSlope: 1.20439386
        outSlope: 1.20439386
        tangentMode: 0
      - time: .0500000045
        value: .570471883
        inSlope: 1.23143244
        outSlope: 1.23143244
        tangentMode: 0
      - time: .0666666701
        value: .59097302
        inSlope: 1.20083582
        outSlope: 1.20083582
        tangentMode: 0
      - time: .0833333358
        value: .61049974
        inSlope: 1.11650002
        outSlope: 1.11650002
        tangentMode: 0
      - time: .100000001
        value: .628189683
        inSlope: .982334137
        outSlope: .982334137
        tangentMode: 0
      - time: .116666667
        value: .643244207
        inSlope: .801656723
        outSlope: .801656723
        tangentMode: 0
      - time: .13333334
        value: .654911578
        inSlope: .576551437
        outSlope: .576551437
        tangentMode: 0
      - time: .150000006
        value: .662462592
        inSlope: .307252437
        outSlope: .307252437
        tangentMode: 0
      - time: .166666672
        value: .665153325
        inSlope: 0
        outSlope: 0
        tangentMode: 0
      - time: .183333337
        value: .662462592
        inSlope: -.307252437
        outSlope: -.307252437
        tangentMode: 0
      - time: .200000003
        value: .654911578
        inSlope: -.576551616
        outSlope: -.576551616
        tangentMode: 0
      - time: .216666669
        value: .643244207
        inSlope: -.801656902
        outSlope: -.801656902
        tangentMode: 0
      - time: .233333334
        value: .628189683
        inSlope: -.982334137
        outSlope: -.982334137
        tangentMode: 0
      - time: .25
        value: .61049974
        inSlope: -1.11649942
        outSlope: -1.11649942
        tangentMode: 0
      - time: .266666681
        value: .59097302
        inSlope: -1.20083475
        outSlope: -1.20083475
        tangentMode: 0
      - time: .283333361
        value: .570471883
        inSlope: -1.23143148
        outSlope: -1.23143148
        tangentMode: 0
      - time: .300000042
        value: .549925268
        inSlope: -1.20439839
        outSlope: -1.20439839
        tangentMode: 0
      - time: .316666722
        value: .530325234
        inSlope: -1.11629343
        outSlope: -1.11629343
        tangentMode: 0
      - time: .333333343
        value: .512715518
        inSlope: -1.05658579
        outSlope: -1.05658579
        tangentMode: 0
      m_PreInfinity: 2
      m_PostInfinity: 2
    attribute: m_LocalRotation.z
    path: Head/Segment1
    classID: 4
    script: {fileID: 0}
  - curve:
      serializedVersion: 2
      m_Curve:
      - time: 0
        value: -.858558536
        inSlope: .645861566
        outSlope: .645861566
        tangentMode: 0
      - time: .0166666675
        value: -.847794175
        inSlope: .700340807
        outSlope: .700340807
        tangentMode: 0
      - time: .0333333351
        value: -.83521384
        inSlope: .794311047
        outSlope: .794311047
        tangentMode: 0
      - time: .0500000045
        value: -.821317136
        inSlope: .855674744
        outSlope: .855674744
        tangentMode: 0
      - time: .0666666701
        value: -.806691349
        inSlope: .879020751
        outSlope: .879020751
        tangentMode: 0
      - time: .0833333358
        value: -.792016447
        inSlope: .858934581
        outSlope: .858934581
        tangentMode: 0
      - time: .100000001
        value: -.778060198
        inSlope: .790661633
        outSlope: .790661633
        tangentMode: 0
      - time: .116666667
        value: -.765661061
        inSlope: .670641541
        outSlope: .670641541
        tangentMode: 0
      - time: .13333334
        value: -.755705476
        inSlope: .496981025
        outSlope: .496981025
        tangentMode: 0
      - time: .150000006
        value: -.749095023
        inSlope: .269960791
        outSlope: .269960791
        tangentMode: 0
      - time: .166666672
        value: -.746706784
        inSlope: 0
        outSlope: 0
        tangentMode: 0
      - time: .183333337
        value: -.749095023
        inSlope: -.269960791
        outSlope: -.269960791
        tangentMode: 0
      - time: .200000003
        value: -.755705476
        inSlope: -.496981204
        outSlope: -.496981204
        tangentMode: 0
      - time: .216666669
        value: -.765661061
        inSlope: -.67064172
        outSlope: -.67064172
        tangentMode: 0
      - time: .233333334
        value: -.778060198
        inSlope: -.790661633
        outSlope: -.790661633
        tangentMode: 0
      - time: .25
        value: -.792016447
        inSlope: -.858934164
        outSlope: -.858934164
        tangentMode: 0
      - time: .266666681
        value: -.806691349
        inSlope: -.879019976
        outSlope: -.879019976
        tangentMode: 0
      - time: .283333361
        value: -.821317136
        inSlope: -.855674028
        outSlope: -.855674028
        tangentMode: 0
      - time: .300000042
        value: -.83521384
        inSlope: -.794314027
        outSlope: -.794314027
        tangentMode: 0
      - time: .316666722
        value: -.847794294
        inSlope: -.700341463
        outSlope: -.700341463
        tangentMode: 0
      - time: .333333343
        value: -.858558536
        inSlope: -.645856261
        outSlope: -.645856261
        tangentMode: 0
      m_PreInfinity: 2
      m_PostInfinity: 2
    attribute: m_LocalRotation.w
    path: Head/Segment1
    classID: 4
    script: {fileID: 0}
  m_EulerEditorCurves:
  - curve:
      serializedVersion: 2
      m_Curve:
      - time: 0
        value: 0
        inSlope: 0
        outSlope: 0
        tangentMode: 10
      - time: .166666672
        value: 0
        inSlope: 0
        outSlope: 0
        tangentMode: 10
      - time: .333333343
        value: 0
        inSlope: 0
        outSlope: 0
        tangentMode: 10
      m_PreInfinity: 2
      m_PostInfinity: 2
    attribute: localEulerAnglesBaked.x
    path: Head/Segment1
    classID: 4
    script: {fileID: 0}
  - curve:
      serializedVersion: 2
      m_Curve:
      - time: 0
        value: 0
        inSlope: 0
        outSlope: 0
        tangentMode: 10
      - time: .166666672
        value: 0
        inSlope: 0
        outSlope: 0
        tangentMode: 10
      - time: .333333343
        value: 0
        inSlope: 0
        outSlope: 0
        tangentMode: 10
      m_PreInfinity: 2
      m_PostInfinity: 2
    attribute: localEulerAnglesBaked.y
    path: Head/Segment1
    classID: 4
    script: {fileID: 0}
  - curve:
      serializedVersion: 2
      m_Curve:
      - time: 0
        value: -421.689758
        inSlope: -130.190552
        outSlope: -130.190552
        tangentMode: 10
      - time: .166666672
        value: -443.388184
        inSlope: 0
        outSlope: 0
        tangentMode: 10
      - time: .333333343
        value: -421.689758
        inSlope: 130.190552
        outSlope: 130.190552
        tangentMode: 10
      m_PreInfinity: 2
      m_PostInfinity: 2
    attribute: localEulerAnglesBaked.z
    path: Head/Segment1
    classID: 4
    script: {fileID: 0}
  - curve:
      serializedVersion: 2
      m_Curve:
      - time: 0
        value: 0
        inSlope: 0
        outSlope: 0
        tangentMode: 10
      - time: .166666672
        value: 0
        inSlope: 0
        outSlope: 0
        tangentMode: 10
      - time: .333333343
        value: 0
        inSlope: 0
        outSlope: 0
        tangentMode: 10
      m_PreInfinity: 2
      m_PostInfinity: 2
    attribute: localEulerAnglesBaked.x
    path: Head/Segment1/Segment2
    classID: 4
    script: {fileID: 0}
  - curve:
      serializedVersion: 2
      m_Curve:
      - time: 0
        value: 0
        inSlope: 0
        outSlope: 0
        tangentMode: 10
      - time: .166666672
        value: 0
        inSlope: 0
        outSlope: 0
        tangentMode: 10
      - time: .333333343
        value: 0
        inSlope: 0
        outSlope: 0
        tangentMode: 10
      m_PreInfinity: 2
      m_PostInfinity: 2
    attribute: localEulerAnglesBaked.y
    path: Head/Segment1/Segment2
    classID: 4
    script: {fileID: 0}
  - curve:
      serializedVersion: 2
      m_Curve:
      - time: 0
        value: -335.026276
        inSlope: 312.113892
        outSlope: 312.113892
        tangentMode: 10
      - time: .166666672
        value: -283.007294
        inSlope: 0
        outSlope: 0
        tangentMode: 10
      - time: .333333343
        value: -335.026276
        inSlope: -312.113892
        outSlope: -312.113892
        tangentMode: 10
      m_PreInfinity: 2
      m_PostInfinity: 2
    attribute: localEulerAnglesBaked.z
    path: Head/Segment1/Segment2
    classID: 4
    script: {fileID: 0}
  - curve:
      serializedVersion: 2
      m_Curve:
      - time: 0
        value: 0
        inSlope: 0
        outSlope: 0
        tangentMode: 10
      - time: .166666672
        value: 0
        inSlope: 0
        outSlope: 0
        tangentMode: 10
      m_PreInfinity: 2
      m_PostInfinity: 2
    attribute: localEulerAnglesBaked.x
    path: 
    classID: 4
    script: {fileID: 0}
  - curve:
      serializedVersion: 2
      m_Curve:
      - time: 0
        value: 0
        inSlope: 0
        outSlope: 0
        tangentMode: 10
      - time: .166666672
        value: 0
        inSlope: 0
        outSlope: 0
        tangentMode: 10
      m_PreInfinity: 2
      m_PostInfinity: 2
    attribute: localEulerAnglesBaked.y
    path: 
    classID: 4
    script: {fileID: 0}
  - curve:
      serializedVersion: 2
      m_Curve:
      - time: 0
        value: .369033813
        inSlope: -23.5827942
        outSlope: -23.5827942
        tangentMode: 10
      - time: .166666672
        value: -3.56143188
        inSlope: -23.5827942
        outSlope: -23.5827942
        tangentMode: 10
      m_PreInfinity: 2
      m_PostInfinity: 2
    attribute: localEulerAnglesBaked.z
    path: 
    classID: 4
    script: {fileID: 0}
  m_Events: []
