%YAML 1.1
%TAG !u! tag:unity3d.com,2011:
--- !u!74 &7400000
AnimationClip:
  m_ObjectHideFlags: 0
  m_PrefabParentObject: {fileID: 0}
  m_PrefabInternal: {fileID: 0}
  m_Name: Lever_DownToUp
  serializedVersion: 4
  m_AnimationType: 2
  m_Compressed: 0
  m_UseHighQualityCurve: 1
  m_RotationCurves:
  - curve:
      serializedVersion: 2
      m_Curve:
      - time: 0
        value: {x: 0, y: 0, z: .887010872, w: .461748511}
        inSlope: {x: 0, y: 0, z: -2.06224322, w: 3.64500213}
        outSlope: {x: 0, y: 0, z: -2.06224322, w: 3.64500213}
        tangentMode: 0
      - time: .0166666675
        value: {x: 0, y: 0, z: .852640152, w: .522498548}
        inSlope: {x: 0, y: 0, z: -2.18685865, w: 3.56863165}
        outSlope: {x: 0, y: 0, z: -2.18685865, w: 3.56863165}
        tangentMode: 162719396
      - time: .0333333351
        value: {x: 0, y: 0, z: .814115584, w: .580702901}
        inSlope: {x: 0, y: 0, z: -2.43046546, w: 3.40738869}
        outSlope: {x: 0, y: 0, z: -2.43046546, w: 3.40738869}
        tangentMode: 1767140975
      - time: .0500000045
        value: {x: 0, y: 0, z: .771624625, w: .636078179}
        inSlope: {x: 0, y: 0, z: -2.66223526, w: 3.22954941}
        outSlope: {x: 0, y: 0, z: -2.66223526, w: 3.22954941}
        tangentMode: 1851880020
      - time: .0666666701
        value: {x: 0, y: 0, z: .725374401, w: .688354552}
        inSlope: {x: 0, y: 0, z: -2.88103056, w: 3.03597307}
        outSlope: {x: 0, y: 0, z: -2.88103056, w: 3.03597307}
        tangentMode: 0
      - time: .0833333358
        value: {x: 0, y: 0, z: .675590277, w: .737277269}
        inSlope: {x: 0, y: 0, z: -3.08579063, w: 2.82760644}
        outSlope: {x: 0, y: 0, z: -3.08579063, w: 2.82760644}
        tangentMode: 155193360
      - time: .100000001
        value: {x: 0, y: 0, z: .622514725, w: .782608092}
        inSlope: {x: 0, y: 0, z: -3.27551937, w: 2.60546589}
        outSlope: {x: 0, y: 0, z: -3.27551937, w: 2.60546589}
        tangentMode: 162719684
      - time: .116666667
        value: {x: 0, y: 0, z: .56640631, w: .824126124}
        inSlope: {x: 0, y: 0, z: -3.4492898, w: 2.37063074}
        outSlope: {x: 0, y: 0, z: -3.4492898, w: 2.37063074}
        tangentMode: 1088422007
      - time: .13333334
        value: {x: 0, y: 0, z: .507538378, w: .861629128}
        inSlope: {x: 0, y: 0, z: -3.60625362, w: 2.1242466}
        outSlope: {x: 0, y: 0, z: -3.60625362, w: 2.1242466}
        tangentMode: 155193360
      - time: .150000006
        value: {x: 0, y: 0, z: .446197838, w: .894934356}
        inSlope: {x: 0, y: 0, z: -3.74564695, w: 1.86751139}
        outSlope: {x: 0, y: 0, z: -3.74564695, w: 1.86751139}
        tangentMode: 71
      - time: .166666672
        value: {x: 0, y: 0, z: .382683486, w: .923879504}
        inSlope: {x: 0, y: 0, z: -3.81086135, w: 1.736709}
        outSlope: {x: 0, y: 0, z: -3.81086135, w: 1.736709}
        tangentMode: 15
      m_PreInfinity: 2
      m_PostInfinity: 2
    path: Lever_Shaft
  - curve:
      serializedVersion: 2
      m_Curve:
      - time: 0
        value: {x: 0, y: 0, z: 0, w: 1}
        inSlope: {x: 0, y: 0, z: 0, w: 0}
        outSlope: {x: 0, y: 0, z: 0, w: 0}
        tangentMode: 0
      - time: .0166666675
        value: {x: 0, y: 0, z: 0, w: 1}
        inSlope: {x: 0, y: 0, z: 0, w: 0}
        outSlope: {x: 0, y: 0, z: 0, w: 0}
        tangentMode: 13
      - time: .0333333351
        value: {x: 0, y: 0, z: 0, w: 1}
        inSlope: {x: 0, y: 0, z: 0, w: 0}
        outSlope: {x: 0, y: 0, z: 0, w: 0}
        tangentMode: 13
      - time: .0500000045
        value: {x: 0, y: 0, z: 0, w: 1}
        inSlope: {x: 0, y: 0, z: 0, w: 0}
        outSlope: {x: 0, y: 0, z: 0, w: 0}
        tangentMode: 395608908
      - time: .0666666701
        value: {x: 0, y: 0, z: 0, w: 1}
        inSlope: {x: 0, y: 0, z: 0, w: 0}
        outSlope: {x: 0, y: 0, z: 0, w: 0}
        tangentMode: 0
      - time: .0833333358
        value: {x: 0, y: 0, z: 0, w: 1}
        inSlope: {x: 0, y: 0, z: 0, w: 0}
        outSlope: {x: 0, y: 0, z: 0, w: 0}
        tangentMode: 0
      - time: .100000001
        value: {x: 0, y: 0, z: 0, w: 1}
        inSlope: {x: 0, y: 0, z: 0, w: 0}
        outSlope: {x: 0, y: 0, z: 0, w: 0}
        tangentMode: 0
      - time: .116666667
        value: {x: 0, y: 0, z: 0, w: 1}
        inSlope: {x: 0, y: 0, z: 0, w: 0}
        outSlope: {x: 0, y: 0, z: 0, w: 0}
        tangentMode: 0
      - time: .13333334
        value: {x: 0, y: 0, z: 0, w: 1}
        inSlope: {x: 0, y: 0, z: 0, w: 0}
        outSlope: {x: 0, y: 0, z: 0, w: 0}
        tangentMode: 162404608
      - time: .150000006
        value: {x: 0, y: 0, z: 0, w: 1}
        inSlope: {x: 0, y: 0, z: 0, w: 0}
        outSlope: {x: 0, y: 0, z: 0, w: 0}
        tangentMode: 0
      - time: .166666672
        value: {x: 0, y: 0, z: 0, w: 1}
        inSlope: {x: 0, y: 0, z: 0, w: 0}
        outSlope: {x: 0, y: 0, z: 0, w: 0}
        tangentMode: 155193360
      m_PreInfinity: 2
      m_PostInfinity: 2
    path: Lever_Base
  m_CompressedRotationCurves: []
  m_PositionCurves: []
  m_ScaleCurves: []
  m_FloatCurves: []
  m_PPtrCurves: []
  m_SampleRate: 60
  m_WrapMode: 0
  m_Bounds:
    m_Center: {x: 0, y: 0, z: 0}
    m_Extent: {x: 0, y: 0, z: 0}
  m_ClipBindingConstant:
    genericBindings:
    - path: 2977769652
      attribute: 2
      script: {fileID: 0}
      classID: 4
      customType: 0
      isPPtrCurve: 0
    - path: 2132986485
      attribute: 2
      script: {fileID: 0}
      classID: 4
      customType: 0
      isPPtrCurve: 0
    pptrCurveMapping: []
  m_AnimationClipSettings:
    serializedVersion: 2
    m_StartTime: 0
    m_StopTime: .166666672
    m_OrientationOffsetY: 0
    m_Level: 0
    m_CycleOffset: 0
    m_LoopTime: 0
    m_LoopBlend: 0
    m_LoopBlendOrientation: 0
    m_LoopBlendPositionY: 0
    m_LoopBlendPositionXZ: 0
    m_KeepOriginalOrientation: 0
    m_KeepOriginalPositionY: 1
    m_KeepOriginalPositionXZ: 0
    m_HeightFromFeet: 0
    m_Mirror: 0
  m_EditorCurves:
  - curve:
      serializedVersion: 2
      m_Curve:
      - time: 0
        value: .461748511
        inSlope: 3.64500213
        outSlope: 3.64500213
        tangentMode: 0
      - time: .0166666675
        value: .522498548
        inSlope: 3.56863165
        outSlope: 3.56863165
        tangentMode: 0
      - time: .0333333351
        value: .580702901
        inSlope: 3.40738869
        outSlope: 3.40738869
        tangentMode: 0
      - time: .0500000045
        value: .636078179
        inSlope: 3.22954941
        outSlope: 3.22954941
        tangentMode: 0
      - time: .0666666701
        value: .688354552
        inSlope: 3.03597307
        outSlope: 3.03597307
        tangentMode: 0
      - time: .0833333358
        value: .737277269
        inSlope: 2.82760644
        outSlope: 2.82760644
        tangentMode: 0
      - time: .100000001
        value: .782608092
        inSlope: 2.60546589
        outSlope: 2.60546589
        tangentMode: 0
      - time: .116666667
        value: .824126124
        inSlope: 2.37063074
        outSlope: 2.37063074
        tangentMode: 0
      - time: .13333334
        value: .861629128
        inSlope: 2.1242466
        outSlope: 2.1242466
        tangentMode: 0
      - time: .150000006
        value: .894934356
        inSlope: 1.86751139
        outSlope: 1.86751139
        tangentMode: 0
      - time: .166666672
        value: .923879504
        inSlope: 1.736709
        outSlope: 1.736709
        tangentMode: 0
      m_PreInfinity: 2
      m_PostInfinity: 2
    attribute: m_LocalRotation.w
    path: Lever_Shaft
    classID: 4
    script: {fileID: 0}
  - curve:
      serializedVersion: 2
      m_Curve:
      - time: 0
        value: .887010872
        inSlope: -2.06224322
        outSlope: -2.06224322
        tangentMode: 0
      - time: .0166666675
        value: .852640152
        inSlope: -2.18685865
        outSlope: -2.18685865
        tangentMode: 0
      - time: .0333333351
        value: .814115584
        inSlope: -2.43046546
        outSlope: -2.43046546
        tangentMode: 0
      - time: .0500000045
        value: .771624625
        inSlope: -2.66223526
        outSlope: -2.66223526
        tangentMode: 0
      - time: .0666666701
        value: .725374401
        inSlope: -2.88103056
        outSlope: -2.88103056
        tangentMode: 0
      - time: .0833333358
        value: .675590277
        inSlope: -3.08579063
        outSlope: -3.08579063
        tangentMode: 0
      - time: .100000001
        value: .622514725
        inSlope: -3.27551937
        outSlope: -3.27551937
        tangentMode: 0
      - time: .116666667
        value: .56640631
        inSlope: -3.4492898
        outSlope: -3.4492898
        tangentMode: 0
      - time: .13333334
        value: .507538378
        inSlope: -3.60625362
        outSlope: -3.60625362
        tangentMode: 0
      - time: .150000006
        value: .446197838
        inSlope: -3.74564695
        outSlope: -3.74564695
        tangentMode: 0
      - time: .166666672
        value: .382683486
        inSlope: -3.81086135
        outSlope: -3.81086135
        tangentMode: 0
      m_PreInfinity: 2
      m_PostInfinity: 2
    attribute: m_LocalRotation.z
    path: Lever_Shaft
    classID: 4
    script: {fileID: 0}
  - curve:
      serializedVersion: 2
      m_Curve:
      - time: 0
        value: 0
        inSlope: 0
        outSlope: 0
        tangentMode: 0
      - time: .0166666675
        value: 0
        inSlope: 0
        outSlope: 0
        tangentMode: 0
      - time: .0333333351
        value: 0
        inSlope: 0
        outSlope: 0
        tangentMode: 0
      - time: .0500000045
        value: 0
        inSlope: 0
        outSlope: 0
        tangentMode: 0
      - time: .0666666701
        value: 0
        inSlope: 0
        outSlope: 0
        tangentMode: 0
      - time: .0833333358
        value: 0
        inSlope: 0
        outSlope: 0
        tangentMode: 0
      - time: .100000001
        value: 0
        inSlope: 0
        outSlope: 0
        tangentMode: 0
      - time: .116666667
        value: 0
        inSlope: 0
        outSlope: 0
        tangentMode: 0
      - time: .13333334
        value: 0
        inSlope: 0
        outSlope: 0
        tangentMode: 0
      - time: .150000006
        value: 0
        inSlope: 0
        outSlope: 0
        tangentMode: 0
      - time: .166666672
        value: 0
        inSlope: 0
        outSlope: 0
        tangentMode: 0
      m_PreInfinity: 2
      m_PostInfinity: 2
    attribute: m_LocalRotation.y
    path: Lever_Shaft
    classID: 4
    script: {fileID: 0}
  - curve:
      serializedVersion: 2
      m_Curve:
      - time: 0
        value: 0
        inSlope: 0
        outSlope: 0
        tangentMode: 0
      - time: .0166666675
        value: 0
        inSlope: 0
        outSlope: 0
        tangentMode: 0
      - time: .0333333351
        value: 0
        inSlope: 0
        outSlope: 0
        tangentMode: 0
      - time: .0500000045
        value: 0
        inSlope: 0
        outSlope: 0
        tangentMode: 0
      - time: .0666666701
        value: 0
        inSlope: 0
        outSlope: 0
        tangentMode: 0
      - time: .0833333358
        value: 0
        inSlope: 0
        outSlope: 0
        tangentMode: 0
      - time: .100000001
        value: 0
        inSlope: 0
        outSlope: 0
        tangentMode: 0
      - time: .116666667
        value: 0
        inSlope: 0
        outSlope: 0
        tangentMode: 0
      - time: .13333334
        value: 0
        inSlope: 0
        outSlope: 0
        tangentMode: 0
      - time: .150000006
        value: 0
        inSlope: 0
        outSlope: 0
        tangentMode: 0
      - time: .166666672
        value: 0
        inSlope: 0
        outSlope: 0
        tangentMode: 0
      m_PreInfinity: 2
      m_PostInfinity: 2
    attribute: m_LocalRotation.x
    path: Lever_Shaft
    classID: 4
    script: {fileID: 0}
  - curve:
      serializedVersion: 2
      m_Curve:
      - time: 0
        value: 0
        inSlope: 0
        outSlope: 0
        tangentMode: 0
      - time: .0166666675
        value: 0
        inSlope: 0
        outSlope: 0
        tangentMode: 0
      - time: .0333333351
        value: 0
        inSlope: 0
        outSlope: 0
        tangentMode: 0
      - time: .0500000045
        value: 0
        inSlope: 0
        outSlope: 0
        tangentMode: 0
      - time: .0666666701
        value: 0
        inSlope: 0
        outSlope: 0
        tangentMode: 0
      - time: .0833333358
        value: 0
        inSlope: 0
        outSlope: 0
        tangentMode: 0
      - time: .100000001
        value: 0
        inSlope: 0
        outSlope: 0
        tangentMode: 0
      - time: .116666667
        value: 0
        inSlope: 0
        outSlope: 0
        tangentMode: 0
      - time: .13333334
        value: 0
        inSlope: 0
        outSlope: 0
        tangentMode: 0
      - time: .150000006
        value: 0
        inSlope: 0
        outSlope: 0
        tangentMode: 0
      - time: .166666672
        value: 0
        inSlope: 0
        outSlope: 0
        tangentMode: 0
      m_PreInfinity: 2
      m_PostInfinity: 2
    attribute: m_LocalRotation.x
    path: Lever_Base
    classID: 4
    script: {fileID: 0}
  - curve:
      serializedVersion: 2
      m_Curve:
      - time: 0
        value: 0
        inSlope: 0
        outSlope: 0
        tangentMode: 0
      - time: .0166666675
        value: 0
        inSlope: 0
        outSlope: 0
        tangentMode: 0
      - time: .0333333351
        value: 0
        inSlope: 0
        outSlope: 0
        tangentMode: 0
      - time: .0500000045
        value: 0
        inSlope: 0
        outSlope: 0
        tangentMode: 0
      - time: .0666666701
        value: 0
        inSlope: 0
        outSlope: 0
        tangentMode: 0
      - time: .0833333358
        value: 0
        inSlope: 0
        outSlope: 0
        tangentMode: 0
      - time: .100000001
        value: 0
        inSlope: 0
        outSlope: 0
        tangentMode: 0
      - time: .116666667
        value: 0
        inSlope: 0
        outSlope: 0
        tangentMode: 0
      - time: .13333334
        value: 0
        inSlope: 0
        outSlope: 0
        tangentMode: 0
      - time: .150000006
        value: 0
        inSlope: 0
        outSlope: 0
        tangentMode: 0
      - time: .166666672
        value: 0
        inSlope: 0
        outSlope: 0
        tangentMode: 0
      m_PreInfinity: 2
      m_PostInfinity: 2
    attribute: m_LocalRotation.y
    path: Lever_Base
    classID: 4
    script: {fileID: 0}
  - curve:
      serializedVersion: 2
      m_Curve:
      - time: 0
        value: 0
        inSlope: 0
        outSlope: 0
        tangentMode: 0
      - time: .0166666675
        value: 0
        inSlope: 0
        outSlope: 0
        tangentMode: 0
      - time: .0333333351
        value: 0
        inSlope: 0
        outSlope: 0
        tangentMode: 0
      - time: .0500000045
        value: 0
        inSlope: 0
        outSlope: 0
        tangentMode: 0
      - time: .0666666701
        value: 0
        inSlope: 0
        outSlope: 0
        tangentMode: 0
      - time: .0833333358
        value: 0
        inSlope: 0
        outSlope: 0
        tangentMode: 0
      - time: .100000001
        value: 0
        inSlope: 0
        outSlope: 0
        tangentMode: 0
      - time: .116666667
        value: 0
        inSlope: 0
        outSlope: 0
        tangentMode: 0
      - time: .13333334
        value: 0
        inSlope: 0
        outSlope: 0
        tangentMode: 0
      - time: .150000006
        value: 0
        inSlope: 0
        outSlope: 0
        tangentMode: 0
      - time: .166666672
        value: 0
        inSlope: 0
        outSlope: 0
        tangentMode: 0
      m_PreInfinity: 2
      m_PostInfinity: 2
    attribute: m_LocalRotation.z
    path: Lever_Base
    classID: 4
    script: {fileID: 0}
  - curve:
      serializedVersion: 2
      m_Curve:
      - time: 0
        value: 1
        inSlope: 0
        outSlope: 0
        tangentMode: 0
      - time: .0166666675
        value: 1
        inSlope: 0
        outSlope: 0
        tangentMode: 0
      - time: .0333333351
        value: 1
        inSlope: 0
        outSlope: 0
        tangentMode: 0
      - time: .0500000045
        value: 1
        inSlope: 0
        outSlope: 0
        tangentMode: 0
      - time: .0666666701
        value: 1
        inSlope: 0
        outSlope: 0
        tangentMode: 0
      - time: .0833333358
        value: 1
        inSlope: 0
        outSlope: 0
        tangentMode: 0
      - time: .100000001
        value: 1
        inSlope: 0
        outSlope: 0
        tangentMode: 0
      - time: .116666667
        value: 1
        inSlope: 0
        outSlope: 0
        tangentMode: 0
      - time: .13333334
        value: 1
        inSlope: 0
        outSlope: 0
        tangentMode: 0
      - time: .150000006
        value: 1
        inSlope: 0
        outSlope: 0
        tangentMode: 0
      - time: .166666672
        value: 1
        inSlope: 0
        outSlope: 0
        tangentMode: 0
      m_PreInfinity: 2
      m_PostInfinity: 2
    attribute: m_LocalRotation.w
    path: Lever_Base
    classID: 4
    script: {fileID: 0}
  m_EulerEditorCurves:
  - curve:
      serializedVersion: 2
      m_Curve:
      - time: 0
        value: 0
        inSlope: 0
        outSlope: 0
        tangentMode: 10
      - time: .166666672
        value: 0
        inSlope: 0
        outSlope: 0
        tangentMode: 10
      m_PreInfinity: 2
      m_PostInfinity: 2
    attribute: localEulerAnglesBaked.x
    path: Lever_Shaft
    classID: 4
    script: {fileID: 0}
  - curve:
      serializedVersion: 2
      m_Curve:
      - time: 0
        value: 0
        inSlope: 0
        outSlope: 0
        tangentMode: 10
      - time: .166666672
        value: 0
        inSlope: 0
        outSlope: 0
        tangentMode: 10
      m_PreInfinity: 2
      m_PostInfinity: 2
    attribute: localEulerAnglesBaked.y
    path: Lever_Shaft
    classID: 4
    script: {fileID: 0}
  - curve:
      serializedVersion: 2
      m_Curve:
      - time: 0
        value: 125
        inSlope: -480
        outSlope: -480
        tangentMode: 10
      - time: .166666672
        value: 45
        inSlope: -480
        outSlope: -480
        tangentMode: 10
      m_PreInfinity: 2
      m_PostInfinity: 2
    attribute: localEulerAnglesBaked.z
    path: Lever_Shaft
    classID: 4
    script: {fileID: 0}
  - curve:
      serializedVersion: 2
      m_Curve:
      - time: 0
        value: 0
        inSlope: 0
        outSlope: 0
        tangentMode: 10
      - time: .166666672
        value: 0
        inSlope: 0
        outSlope: 0
        tangentMode: 10
      m_PreInfinity: 2
      m_PostInfinity: 2
    attribute: localEulerAnglesBaked.x
    path: Lever_Base
    classID: 4
    script: {fileID: 0}
  - curve:
      serializedVersion: 2
      m_Curve:
      - time: 0
        value: 0
        inSlope: 0
        outSlope: 0
        tangentMode: 10
      - time: .166666672
        value: 0
        inSlope: 0
        outSlope: 0
        tangentMode: 10
      m_PreInfinity: 2
      m_PostInfinity: 2
    attribute: localEulerAnglesBaked.y
    path: Lever_Base
    classID: 4
    script: {fileID: 0}
  - curve:
      serializedVersion: 2
      m_Curve:
      - time: 0
        value: 0
        inSlope: 0
        outSlope: 0
        tangentMode: 10
      - time: .166666672
        value: 0
        inSlope: 0
        outSlope: 0
        tangentMode: 10
      m_PreInfinity: 2
      m_PostInfinity: 2
    attribute: localEulerAnglesBaked.z
    path: Lever_Base
    classID: 4
    script: {fileID: 0}
  m_Events: []
