%YAML 1.1
%TAG !u! tag:unity3d.com,2011:
--- !u!78 &1
TagManager:
  tags:
  - Enemy
  - ItemDatabase
  - Inventory
  - ItemDescription
  - Canvas
  - Weapon
  - EntryPoint
  - Gem
  - Door
  - Tile
  - HitBox
  - PlayerHitbox
  - EnemyHitbox
  - LoadingBar
  - 
  - 
  Builtin Layer 0: Default
  Builtin Layer 1: TransparentFX
  Builtin Layer 2: Ignore Raycast
  Builtin Layer 3: 
  Builtin Layer 4: Water
  Builtin Layer 5: UI
  Builtin Layer 6: 
  Builtin Layer 7: 
  User Layer 8: obstacle
  User Layer 9: hitbox
  User Layer 10: pickup
  User Layer 11: player
  User Layer 12: enemy
  User Layer 13: InteractObj
  User Layer 14: playerProjectile
  User Layer 15: enemyProjectile
  User Layer 16: projectile
  User Layer 17: 
  User Layer 18: 
  User Layer 19: 
  User Layer 20: 
  User Layer 21: 
  User Layer 22: 
  User Layer 23: 
  User Layer 24: 
  User Layer 25: 
  User Layer 26: 
  User Layer 27: 
  User Layer 28: 
  User Layer 29: 
  User Layer 30: 
  User Layer 31: 
  m_SortingLayers:
  - name: Default
    userID: 0
    uniqueID: 0
    locked: 0
  - name: tile
    userID: 3
    uniqueID: 1262150501
    locked: 0
  - name: prop
    userID: 4
    uniqueID: 842443235
    locked: 0
  - name: Item
    userID: 1
    uniqueID: 698629485
    locked: 0
  - name: enemy
    userID: 5
    uniqueID: 3302099063
    locked: 0
  - name: player
    userID: 2
    uniqueID: 2399092869
    locked: 0
  - name: lightbuffer
    userID: 6
    uniqueID: 358959409
    locked: 0
  - name: fx
    userID: 7
    uniqueID: 689552629
    locked: 0
